Labor Share & Aging Population
…
# Visualization
breakers

## # A tibble: 26 x 10
##    Country  Year Sequence Period    Ny    No     n     p    p1   eta
##    <fct>   <int>    <dbl>  <dbl> <dbl> <dbl> <dbl> <dbl> <dbl> <dbl>
##  1 France   1960        4      0  1.32 0.433 1.14  0.372 0.525  4.20
##  2 France   1970        1      1  1.49 0.546 1.13  0.417 0.583  3.85
##  3 France   1980        2      1  1.62 0.516 1.39  0.444 0.613  4.50
##  4 France   1990        3      1  1.76 0.629 1.36  0.486 0.667  4.13
##  5 France   2000        4      1  1.82 0.694 1.38  0.525 0.683  3.89
##  6 France   2010        1      2  1.97 0.867 1.33  0.583 0.685  3.38
##  7 France   2020        2      2  1.84 0.992 1.13  0.613 0.707  2.78
##  8 France   2030        3      2  1.86 1.17  1.05  0.667 0.743  2.41
##  9 France   2040        4      2  1.82 1.24  0.998 0.683 0.774  2.26
## 10 France   2050        1      3  1.92 1.35  0.974 0.685 0.801  2.22
## # ... with 16 more rows
…
