…
    ## # A tibble: 30 x 7
    ##    Country US100_min UC1000_min US100_mean UC1000_mean US100_first
    ##    <fct>       <dbl>      <dbl>      <dbl>       <dbl>       <dbl>
    ##  1 Austra~     0.149      0.255      0.270       0.594       0.149
    ##  2 Austria     0.357      0.442      0.527       0.647       0.397
    ##  3 Belgium     0.584      0.580      0.639       0.706       0.584
    ##  4 Canada      0.554      0.588      0.611       0.646       0.686
    ##  5 Czech ~     0.383      0.506      0.464       0.555       0.541
    ##  6 Denmark     0.476      0.51       0.688       0.729       0.863
    ##  7 Estonia     0.089      0.157      0.305       0.366       0.133
    ##  8 Finland     0.315      0.479      0.532       0.641       0.403
    ##  9 France      0.592      0.593      0.696       0.696       0.611
    ## 10 Germany     0.6        0.632      0.627       0.698       0.625
    ## # ... with 20 more rows, and 1 more variable: UC1000_first <dbl>
…
